Toronto Bike Rack Map (February 2021)
…
## Warning: 1 parsing failure.
##   row    col expected   actual               file
## 16299 SITEID a double BP-46103 'bike_parking.csv'

raw_data

## # A tibble: 16,998 x 20
##     `_id` OBJECTID ID    ADDRESSNUMBERTE ADDRESSSTREET FRONTINGSTREET SIDE 
##     <dbl>    <dbl> <chr> <chr>            <chr>         <chr>          <chr>
##  1 7.63e6        2 BP-1 70               The Pond Rd   <NA>           <NA> 
##  2 7.63e6        7 BP-1 8                Assiniboine  <NA>           <NA> 
##  3 7.63e6       66 BP-0 8                Kensington A <NA>           <NA> 
##  4 7.63e6      108 BP-1 21               Canniff St    <NA>           <NA> 
##  5 7.63e6      171 BP-1 359              King St E     <NA>           <NA> 
##  6 7.63e6      219 BP-1 1960             Queen St E    <NA>           <NA> 
##  7 7.63e6      244 BP-1 87               Avenue Rd     Avenue Rd      East 
##  8 7.63e6      275 BP-0 50               Blue Jays Way <NA>           <NA> 
##  9 7.63e6      289 BP-0 1313             Bloor St W    <NA>           <NA> 
## 10 7.63e6      323 BP-0 189              Dundas St E   <NA>           <NA> 
## #  with 16,988 more rows, and 13 more variables: FROMSTREET <chr>,
## #   DIRECTION <chr>, SITEID <dbl>, WARD <dbl>, BIA <chr>, ASSETTYPE <chr>,
## #   STATUS <chr>, SDE_STATE_ID <dbl>, X <dbl>, Y <dbl>, LONGITUDE <dbl>,
## #   LATITUDE <dbl>, geometry <chr>
…
